﻿<?xml version="1.0" encoding="UTF-8"?>
<TestRun id="826d7c7b-8a57-4585-b15a-ea50599841cb" name="Vilya@VILYA-76C5F0936 2012-08-20 01:28:06" runUser="VILYA-76C5F0936\Vilya" xmlns="http://microsoft.com/schemas/VisualStudio/TeamTest/2006">
  <TestRunConfiguration name="Local Test Run" id="9c250e1d-f8cd-4c92-9fff-24a7056772f1">
    <Description>This is a default test run configuration for a local test run.</Description>
    <Deployment runDeploymentRoot="C:\Development\PacketViewer\TestResults\Vilya_VILYA-76C5F0936 2012-08-20 01_28_06">
      <DeploymentItem filename="C:\Development\PacketViewer\PacketEncoder\bin\Debug\PacketEncoder.dll" />
      <DeploymentItem filename="C:\Development\PacketViewer\PacketParser434\bin\Debug\PacketAnalysis.dll" />
    </Deployment>
    <TestTypeSpecific />
  </TestRunConfiguration>
  <ResultSummary outcome="Completed">
    <Counters total="1" executed="1" passed="1" error="0" failed="0" timeout="0" aborted="0" inconclusive="0" passedButRunAborted="0" notRunnable="0" notExecuted="0" disconnected="0" warning="0" completed="0" inProgress="0" pending="0" />
    <Output>
      <StdOut>Timer Results:
Timer Name:      t1
Start Time:      20.08.2012 1:28:09
End Time:        20.08.2012 1:29:35
Timer Duration:  00:01:25.0880838
</StdOut>
    </Output>
  </ResultSummary>
  <Times creation="2012-08-20T01:28:06.6562500+03:00" queuing="2012-08-20T01:28:08.5156250+03:00" start="2012-08-20T01:28:09.0625000+03:00" finish="2012-08-20T01:29:35.5156250+03:00" />
  <TestDefinitions>
    <UnitTest name="TestMethod1" storage="c:\development\packetviewer\packetanalysistest\bin\debug\packetanalysistest.dll" id="9a2ece7b-c908-302a-cb54-99c5db2d799f">
      <Css projectStructure="" iteration="" />
      <Owners>
        <Owner name="" />
      </Owners>
      <Execution id="69bb2f05-231a-474c-a970-058352c69345" />
      <TestMethod codeBase="C:\Development\PacketViewer\PacketAnalysisTest\bin\Debug\PacketAnalysisTest.dll" adapterTypeName="Microsoft.VisualStudio.TestTools.TestTypes.Unit.UnitTestAdapter, Microsoft.VisualStudio.QualityTools.Tips.UnitTest.Adapter, Version=9.0.0.0, Culture=neutral, PublicKeyToken=b03f5f7f11d50a3a" className="PacketAnalysisTest.UnitTest1, PacketAnalysisTest" name="TestMethod1" />
    </UnitTest>
  </TestDefinitions>
  <TestLists>
    <TestList name="Results Not in a List" id="8c84fa94-04c1-424b-9868-57a2d4851a1d" />
    <TestList name="All Loaded Results" id="19431567-8539-422a-85d7-44ee4e166bda" />
  </TestLists>
  <TestEntries>
    <TestEntry testId="9a2ece7b-c908-302a-cb54-99c5db2d799f" executionId="69bb2f05-231a-474c-a970-058352c69345" testListId="8c84fa94-04c1-424b-9868-57a2d4851a1d" />
  </TestEntries>
  <Results>
    <UnitTestResult executionId="69bb2f05-231a-474c-a970-058352c69345" testId="9a2ece7b-c908-302a-cb54-99c5db2d799f" testName="TestMethod1" computerName="VILYA-76C5F0936" duration="00:01:25.3022965" startTime="2012-08-20T01:28:09.2187500+03:00" endTime="2012-08-20T01:29:35.1093750+03:00" testType="13cdc9d9-ddb5-4fa4-a97d-d965ccfc6d4b" outcome="Passed" testListId="8c84fa94-04c1-424b-9868-57a2d4851a1d">
      <Output>
      </Output>
      <Timers>
        <Timer name="t1" startTime="2012-08-20T01:28:09.9431662+03:00" duration="00:01:25.0880838" />
      </Timers>
    </UnitTestResult>
  </Results>
</TestRun>