﻿<?xml version="1.0" encoding="UTF-8"?>
<TestRun id="21cd44d6-ab92-42c1-8165-122aabb4c877" name="Vilya@VILYA-76C5F0936 2012-08-20 01:16:15" runUser="VILYA-76C5F0936\Vilya" xmlns="http://microsoft.com/schemas/VisualStudio/TeamTest/2006">
  <TestRunConfiguration name="Local Test Run" id="9c250e1d-f8cd-4c92-9fff-24a7056772f1">
    <Description>This is a default test run configuration for a local test run.</Description>
    <Deployment runDeploymentRoot="C:\Development\PacketViewer\TestResults\Vilya_VILYA-76C5F0936 2012-08-20 01_16_15">
      <DeploymentItem filename="C:\Development\PacketViewer\PacketEncoder\bin\Release\PacketEncoder.dll" />
      <DeploymentItem filename="C:\Development\PacketViewer\PacketParser434\bin\Release\PacketAnalysis.dll" />
    </Deployment>
    <TestTypeSpecific />
  </TestRunConfiguration>
  <ResultSummary outcome="Error">
    <Counters total="1" executed="1" error="0" failed="0" timeout="0" aborted="1" inconclusive="0" passedButRunAborted="0" notRunnable="0" notExecuted="0" disconnected="0" warning="0" passed="0" completed="0" inProgress="0" pending="0" />
    <RunInfos>
      <RunInfo computerName="VILYA-76C5F0936" outcome="Error" timestamp="2012-08-20T01:16:31.4531250+03:00">
        <Text>Test host process exited unexpectedly.</Text>
      </RunInfo>
    </RunInfos>
  </ResultSummary>
  <Times creation="2012-08-20T01:16:15.4375000+03:00" queuing="2012-08-20T01:16:17.2187500+03:00" start="2012-08-20T01:16:17.8125000+03:00" finish="2012-08-20T01:16:31.4531250+03:00" />
  <TestDefinitions>
    <UnitTest name="TestMethod1" storage="c:\development\packetviewer\packetanalysistest\bin\release\packetanalysistest.dll" id="9a2ece7b-c908-302a-cb54-99c5db2d799f">
      <Css projectStructure="" iteration="" />
      <Owners>
        <Owner name="" />
      </Owners>
      <Execution id="f49a8587-6783-4d73-b481-a6ad5fb65c19" />
      <TestMethod codeBase="C:\Development\PacketViewer\PacketAnalysisTest\bin\Release\PacketAnalysisTest.dll" adapterTypeName="Microsoft.VisualStudio.TestTools.TestTypes.Unit.UnitTestAdapter, Microsoft.VisualStudio.QualityTools.Tips.UnitTest.Adapter, Version=9.0.0.0, Culture=neutral, PublicKeyToken=b03f5f7f11d50a3a" className="PacketAnalysisTest.UnitTest1, PacketAnalysisTest" name="TestMethod1" />
    </UnitTest>
  </TestDefinitions>
  <TestLists>
    <TestList name="Results Not in a List" id="8c84fa94-04c1-424b-9868-57a2d4851a1d" />
    <TestList name="All Loaded Results" id="19431567-8539-422a-85d7-44ee4e166bda" />
  </TestLists>
  <TestEntries>
    <TestEntry testId="9a2ece7b-c908-302a-cb54-99c5db2d799f" executionId="7d75b8e5-1763-4bfd-8ef6-2f93f3409f53" testListId="8c84fa94-04c1-424b-9868-57a2d4851a1d" />
  </TestEntries>
  <Results>
    <UnitTestResult executionId="7d75b8e5-1763-4bfd-8ef6-2f93f3409f53" testId="9a2ece7b-c908-302a-cb54-99c5db2d799f" testName="TestMethod1" computerName="VILYA-76C5F0936" duration="00:00:13.4531250" startTime="2012-08-20T01:16:18.0000000+03:00" endTime="2012-08-20T01:16:31.4531250+03:00" testType="13cdc9d9-ddb5-4fa4-a97d-d965ccfc6d4b" outcome="Aborted" testListId="8c84fa94-04c1-424b-9868-57a2d4851a1d">
    </UnitTestResult>
  </Results>
</TestRun>